{
  "@class": "VerificationResponse",
  "movements": [
    {
      "@class": "Movement",
      "creationDate": 1560852016020,
      "merchantOrderId": "IT.10011719Q",
      "code": "0",
      "errorType": "UNKNOWN",
      "errorDescription": "OK",
      "action": "AUTHORIZE",
      "status": "AUTHORIZED",
      "amount": 13.99,
      "currency": "EUR",
      "terminalId": "online1",
      "transactionId": null,
      "merchantStatus": "AUTHORISED",
      "merchantStatusSubcode": null,
      "secure": "2",
      "transactionIdSub": null,
      "additionalInformation": null,
      "protocolVersion":"2.1.0"
    }
  ],
  "amount": 13.99,
  "currency": "EUR",
  "collectionStatus": "AUTHORIZED",
  "gatewayCollectionMethod": {
    "@class": "CreditCardGatewayCollectionMethod",
    "id": 0,
    "gatewayCollectionMethodType": "SECURE3D2",
    "collectionMode": null,
    "captureMode": null,
    "type": "VISA_CREDIT"
  },
  "redirectionParameters": null,
  "recurringTransactionId": null
}
